%YAML 1.1
%TAG !u! tag:unity3d.com,2011:
--- !u!114 &11400000
MonoBehaviour:
  m_ObjectHideFlags: 0
  m_CorrespondingSourceObject: {fileID: 0}
  m_PrefabInstance: {fileID: 0}
  m_PrefabAsset: {fileID: 0}
  m_GameObject: {fileID: 0}
  m_Enabled: 1
  m_EditorHideFlags: 0
  m_Script: {fileID: 11500000, guid: d77618c792d43a94daad97965a54266a, type: 3}
  m_Name: LeftFoot
  m_EditorClassIdentifier: 
  displayName: Left Foot
  bodyPartGraphic: {fileID: 21300000, guid: a4ff5befa6233634aade01924490f020, type: 3}
  baseStatsTemplate:
  - {fileID: 11400000, guid: 4b88cfe90e851be40a89241c5d20bc70, type: 2}
  - {fileID: 11400000, guid: 2fb091d052575744fa4670ccae57b389, type: 2}
  bodyPartStartHealthPoints: 10
  _weakenApplyChanceOnDestoy: 5
