%YAML 1.1
%TAG !u! tag:unity3d.com,2011:
--- !u!114 &11400000
MonoBehaviour:
  m_ObjectHideFlags: 0
  m_CorrespondingSourceObject: {fileID: 0}
  m_PrefabInstance: {fileID: 0}
  m_PrefabAsset: {fileID: 0}
  m_GameObject: {fileID: 0}
  m_Enabled: 1
  m_EditorHideFlags: 0
  m_Script: {fileID: 11500000, guid: 1ca683b891a3eea4dacc096e45742eb0, type: 3}
  m_Name: RightArm
  m_EditorClassIdentifier: 
  displayName: Right Arm
  bodyPartGraphic: {fileID: 21300000, guid: 7be2a500235abd149ba32ea8acb4303b, type: 3}
  baseStatsTemplate:
  - {fileID: 11400000, guid: 4b88cfe90e851be40a89241c5d20bc70, type: 2}
  - {fileID: 11400000, guid: 2fb091d052575744fa4670ccae57b389, type: 2}
  bodyPartStartHealthPoints: 10
  _weakenApplyChanceOnDestoy: 5
