%YAML 1.1
%TAG !u! tag:unity3d.com,2011:
--- !u!114 &11400000
MonoBehaviour:
  m_ObjectHideFlags: 0
  m_CorrespondingSourceObject: {fileID: 0}
  m_PrefabInstance: {fileID: 0}
  m_PrefabAsset: {fileID: 0}
  m_GameObject: {fileID: 0}
  m_Enabled: 1
  m_EditorHideFlags: 0
  m_Script: {fileID: 11500000, guid: 205031a3a13d95c4ebd78a5260411a8e, type: 3}
  m_Name: Longsword
  m_EditorClassIdentifier: 
  itemName: Longsword
  _displaySprite: {fileID: 21300000, guid: b1668b7e60df1bd49b02740ed648c009, type: 3}
  _itemRarity: {fileID: 11400000, guid: b5c2823a17ccf2e468788df225b179e9, type: 2}
  bodyPartType: {fileID: 11400000, guid: e9699cdb4a824e54e939e9b253e49f5e, type: 2}
  itemStats:
  - statName: Attack Power
    characterStatType: {fileID: 11400000, guid: 80cdccea67b24624a9de9976d4f0e7c0,
      type: 2}
    statValue: 15
    _statModifierType: 0
    target: 0
    durationType: 
    statActionPhase:
      phaseName: 
      actionPhase: {fileID: 0}
      OnActionPhaseEvent:
        m_PersistentCalls:
          m_Calls: []
      isActivatedOnChance: 0
      activationChance: 0
    description: +15 Attack Power
    customDescription: 
  _weaponHandType: 4
