%YAML 1.1
%TAG !u! tag:unity3d.com,2011:
--- !u!114 &11400000
MonoBehaviour:
  m_ObjectHideFlags: 0
  m_CorrespondingSourceObject: {fileID: 0}
  m_PrefabInstance: {fileID: 0}
  m_PrefabAsset: {fileID: 0}
  m_GameObject: {fileID: 0}
  m_Enabled: 1
  m_EditorHideFlags: 0
  m_Script: {fileID: 11500000, guid: a4b2550e5c0e7d5458a66ddd044f80d1, type: 3}
  m_Name: HealthPoints
  m_EditorClassIdentifier: 
  _displayName: Health Points
  value: 0
  _uniqueApplicable: 0
  statActionPhases: []
  currentValue: 0
