%YAML 1.1
%TAG !u! tag:unity3d.com,2011:
--- !u!114 &11400000
MonoBehaviour:
  m_ObjectHideFlags: 0
  m_CorrespondingSourceObject: {fileID: 0}
  m_PrefabInstance: {fileID: 0}
  m_PrefabAsset: {fileID: 0}
  m_GameObject: {fileID: 0}
  m_Enabled: 1
  m_EditorHideFlags: 0
  m_Script: {fileID: 11500000, guid: cc992fe1d52f915499d88d925a3a9d58, type: 3}
  m_Name: DemoInventory
  m_EditorClassIdentifier: 
  _items:
  - {fileID: 11400000, guid: d84c880eb3044d4419935ea500871623, type: 2}
  - {fileID: 11400000, guid: c3f348e676c0cda49bb5aeb8d78bfca4, type: 2}
  - {fileID: 11400000, guid: 9678bcd56cf542542925cefa14d8f601, type: 2}
  - {fileID: 11400000, guid: 5f56d36fa72b0b347b3608f475a93ace, type: 2}
  - {fileID: 11400000, guid: 5b6c04b01a846ec489ebe507f03a4ce0, type: 2}
  - {fileID: 11400000, guid: c8579cc247ac8b9458fa0ced1af3e947, type: 2}
  - {fileID: 11400000, guid: b5d2bdcc1c267bc42b01f2b50a1a4c2b, type: 2}
  - {fileID: 11400000, guid: d458e527994db1348b94afef5db63744, type: 2}
  - {fileID: 11400000, guid: 6c3bb67de7953b64196a7aaf2155dddc, type: 2}
  - {fileID: 11400000, guid: 8fc72adfbc0ce23488d07ac26f8e93e1, type: 2}
  - {fileID: 11400000, guid: a97560963a963de419757cdf9b9e02ea, type: 2}
  - {fileID: 11400000, guid: 818025d0cd51b8249b322a32b2ab7a85, type: 2}
  - {fileID: 11400000, guid: 190a935c14f2c054ebb2de90327d6fe6, type: 2}
  - {fileID: 11400000, guid: 76fce16a721bda2439c0d84e40b3ee2e, type: 2}
  - {fileID: 11400000, guid: 47b27137f6744524187c031e053b6d6b, type: 2}
  - {fileID: 11400000, guid: b3c6f126a919783488ba61b9729a3c8b, type: 2}
  - {fileID: 11400000, guid: 5aeb5ae69738fe24f9ce0c7005da522e, type: 2}
  - {fileID: 11400000, guid: 1d863c66852bec94f99156da40d0d739, type: 2}
  - {fileID: 11400000, guid: 62e0255ee150de947b51edae4a383350, type: 2}
  - {fileID: 11400000, guid: 7aba452257c8a704a86360d21fe4bd30, type: 2}
  - {fileID: 11400000, guid: a8b5a5a5b4334d14699c86a197f329e4, type: 2}
  - {fileID: 11400000, guid: 4b8a1523c0c91df4290f9b5603830186, type: 2}
  - {fileID: 11400000, guid: 00d9d290916537c46bed63dc517c0545, type: 2}
  - {fileID: 11400000, guid: 5310a4ce0ea178b43bca644255f95f14, type: 2}
  - {fileID: 11400000, guid: 17b9e6866ce8e0244a0838ee2c97921d, type: 2}
  - {fileID: 11400000, guid: 0abaf9e761ed39542abea402e5d5b6b1, type: 2}
  - {fileID: 11400000, guid: 719b242421af73d408998867e44690d2, type: 2}
  - {fileID: 11400000, guid: edc043b920672134eae93009f901dd28, type: 2}
  - {fileID: 11400000, guid: 32f95757430d379439ec51bd4180175c, type: 2}
  - {fileID: 11400000, guid: 77385dacf3c63f14585cae36c3ea80ae, type: 2}
